{
	"Make freezed base class": {
		"prefix": "frz",
		"body": [
			"import 'package:freezed_annotation/freezed_annotation.dart';",
			"",
			"part '$TM_FILENAME_BASE.freezed.dart';",
			"",
			"@freezed",
			"abstract class $1 with _$$1 {",
			"  const factory $1() = _$1;",
			"}"
		],
		"description": "Make a base class using freezed"
	},
	"Make fromJson factory": {
		"prefix": "frmjsn",
		"body": "factory $1.fromJson(Map<String, dynamic> json) => _$$1FromJson(json);",
		"description": "Make a json_serializable fromJson factory"
	},
	"Make freezed with fromJson": {
		"prefix": "frzjsn",
		"body": [
			"import 'package:freezed_annotation/freezed_annotation.dart';",
			"",
			"part '$TM_FILENAME_BASE.freezed.dart';",
			"part '$TM_FILENAME_BASE.g.dart';",
			"",
			"@freezed",
			"abstract class $1 with _$$1 {",
			"  const factory $1() = _$1;",
			"",
			"  factory $1.fromJson(Map<String, dynamic> json) => _$$1FromJson(json);",
			"}"
		],
		"description": "Make a json_serializable fromJson factory"
	}
}