{
  "workbench.startupEditor": "newUntitledFile",
  "editor.fontLigatures": true,
  "gitlens.codeLens.enabled": false,
  "files.exclude": {
    "**/*.freezed.dart": true,
    "**/*.g.dart": true
  },
  "editor.renderWhitespace": "none",
  "workbench.list.smoothScrolling": true,
  "debug.console.fontFamily": "'Fira Code', 'Droid Sans Mono', 'monospace', monospace, 'Droid Sans Fallback'",
  "editor.fontFamily": "'Fira Code', 'Droid Sans Mono', 'monospace', monospace, 'Droid Sans Fallback'",
  "debug.console.fontSize": 12,
  "[dart]": {
    "editor.formatOnSave": true,
    "editor.formatOnType": true,
    "editor.rulers": [80],
    "editor.selectionHighlight": false,
    "editor.suggest.snippetsPreventQuickSuggestions": false,
    "editor.suggestSelection": "first",
    "editor.tabCompletion": "onlySnippets",
    "editor.wordBasedSuggestions": "off"
  },
  "workbench.iconTheme": "catppuccin-frappe",
  "dart.previewLsp": true,
  "[html]": {
    "editor.defaultFormatter": "esbenp.prettier-vscode"
  },
  "workbench.editorAssociations": {
    "*.ipynb": "jupyter-notebook"
  },
  "python.pythonPath": "/usr/bin/python3",
  "[javascript]": {
    "editor.defaultFormatter": "esbenp.prettier-vscode"
  },
  "[typescriptreact]": {
    "editor.defaultFormatter": "esbenp.prettier-vscode"
  },
  "[typescript]": {
    "editor.defaultFormatter": "esbenp.prettier-vscode"
  },
  "[jsonc]": {
    "editor.defaultFormatter": "esbenp.prettier-vscode"
  },
  "[json]": {
    "editor.defaultFormatter": "esbenp.prettier-vscode"
  },
  "[rust]": {
    "editor.rulers": [100],
    "editor.wordBasedSuggestions": "off",
    // "editor.quickSuggestionsDelay": 200
  },
  "editor.codeActionsOnSave": {
    "source.fixAll.eslint": "explicit"
  },
  "eslint.validate": [
    "javascript",
    "typescript",
    "javascriptreact",
    "typescriptreact"
  ],
  "eslint.lintTask.enable": true,
  "javascript.validate.enable": true,
  "typescript.validate.enable": true,
  "oneDarkPro.vivid": false,
  "search.exclude": {
    "**/deps": true
  },
  "ruff.nativeServer": true,
  // "python.languageServer": "",
  "[python]": {
    "editor.defaultFormatter": "charliermarsh.ruff"
  },
  "python.analysis.typeCheckingMode": "basic",
  "redhat.telemetry.enabled": false,
  "[xml]": {
    "editor.defaultFormatter": "DotJoshJohnson.xml"
  },
  "security.workspace.trust.enabled": false,
  "security.workspace.trust.startupPrompt": "never",
  "security.workspace.trust.untrustedFiles": "open",
  "security.workspace.trust.emptyWindow": false,
  "arduino.useArduinoCli": true,
  "arduino.path": "/home/alfons/.local/bin",
  "arduino.commandPath": "arduino-cli",
  "window.zoomLevel": 3,
  "python.defaultInterpreterPath": "/usr/bin/python3",
  "rust-analyzer.inlayHints.enable": false,
  "notebook.cellToolbarLocation": {
    "default": "right",
    "jupyter-notebook": "left"
  },
  "rust-analyzer.checkOnSave.command": "clippy",
  "window.menuBarVisibility": "toggle",
  "gitlens.currentLine.enabled": false,
  "editor.inlayHints.enabled": "offUnlessPressed",
  "window.autoDetectColorScheme": true,
  "workbench.preferredDarkColorTheme": "Catppuccin Frappé",
  "workbench.preferredLightColorTheme": "Catppuccin Latte",
  "svelte.enable-ts-plugin": true,
  "[svelte]": {
    "editor.defaultFormatter": "svelte.svelte-vscode"
  },
  "typescript.tsserver.experimental.enableProjectDiagnostics": true,
  "clangd.path": "/home/alfons/.config/VSCodium/User/globalStorage/llvm-vs-code-extensions.vscode-clangd/install/15.0.6/clangd_15.0.6/bin/clangd",
  "[lua]": {
    "editor.defaultFormatter": "JohnnyMorganz.stylua"
  },
  "files.autoSave": "afterDelay",
  "continue.enableTabAutocomplete": false,
  "editor.smoothScrolling": true
}
